{
	"LayerNames": [
		"Layer 1",
		"Layer 2",
		"Layer 3",
		"Layer 4",
		"Layer 5",
		"Layer 6",
		"Layer 7",
		"Layer 8",
		"Layer 9",
		"Layer 10",
		"Layer 11",
		"Layer 12",
		"Layer 13",
		"Layer 14",
		"Layer 15",
		"Layer 16"
	],
	"CollisionMatrix": [
		[1, 65535],
		[2, 65533],
		[4, 65535],
		[8, 65535],
		[16, 65535],
		[32, 65535],
		[64, 65535],
		[128, 65535],
		[256, 65535],
		[512, 65535],
		[1024, 65535],
		[2048, 65535],
		[4096, 65535],
		[8192, 65535],
		[16384, 65535],
		[32768, 65535]
	]
}
