[
	{
		"texture": {},
		"textureSrc": "http://127.0.0.1:5500/build/images/testsheet.png",
		"sourceX": 13,
		"sourceY": 580,
		"width": 69,
		"height": 36,
		"originX": 0.5,
		"originY": 0.5,
		"imagePoints": [],
		"drawScaleX": 3,
		"drawScaleY": 3
	},
	{
		"texture": {},
		"textureSrc": "http://127.0.0.1:5500/build/images/testsheet.png",
		"sourceX": 88,
		"sourceY": 581,
		"width": 61,
		"height": 32,
		"originX": 0.5,
		"originY": 0.5,
		"imagePoints": [],
		"drawScaleX": 3,
		"drawScaleY": 3
	},
	{
		"texture": {},
		"textureSrc": "http://127.0.0.1:5500/build/images/testsheet.png",
		"sourceX": 155,
		"sourceY": 581,
		"width": 73,
		"height": 32,
		"originX": 0.5,
		"originY": 0.5,
		"imagePoints": [],
		"drawScaleX": 3,
		"drawScaleY": 3
	},
	{
		"texture": {},
		"textureSrc": "http://127.0.0.1:5500/build/images/testsheet.png",
		"sourceX": 234,
		"sourceY": 582,
		"width": 64,
		"height": 30,
		"originX": 0.5,
		"originY": 0.5,
		"imagePoints": [],
		"drawScaleX": 3,
		"drawScaleY": 3
	},
	{
		"texture": {},
		"textureSrc": "http://127.0.0.1:5500/build/images/testsheet.png",
		"sourceX": 304,
		"sourceY": 578,
		"width": 74,
		"height": 35,
		"originX": 0.5,
		"originY": 0.5,
		"imagePoints": [],
		"drawScaleX": 3,
		"drawScaleY": 3
	},
	{
		"texture": {},
		"textureSrc": "http://127.0.0.1:5500/build/images/testsheet.png",
		"sourceX": 384,
		"sourceY": 580,
		"width": 64,
		"height": 32,
		"originX": 0.5,
		"originY": 0.5,
		"imagePoints": [],
		"drawScaleX": 3,
		"drawScaleY": 3
	}
]